[
  {
    "cd": "AGC000",
    "cdNm": "나이 코드",
    "cdNmEn": "Age code",
    "cdXpln": "나이 코드",
    "cdOrd": "0",
    "mappingCd": "",
    "prntCd": "",
    "codes": [
      {
        "cd": "AGC001",
        "cdNm": "~7",
        "cdNmEn": "~7",
        "cdXpln": "~7세",
        "cdOrd": "0",
        "mappingCd": "0",
        "prntCd": "AGC000"
      },
      {
        "cd": "AGC002",
        "cdNm": "8~9",
        "cdNmEn": "8~9",
        "cdXpln": "8~9세",
        "cdOrd": "1",
        "mappingCd": "1",
        "prntCd": "AGC000"
      },
      {
        "cd": "AGC003",
        "cdNm": "10~11",
        "cdNmEn": "10~11",
        "cdXpln": "10~11세",
        "cdOrd": "2",
        "mappingCd": "2",
        "prntCd": "AGC000"
      },
      {
        "cd": "AGC004",
        "cdNm": "12~13",
        "cdNmEn": "12~13",
        "cdXpln": "12~13세",
        "cdOrd": "3",
        "mappingCd": "3",
        "prntCd": "AGC000"
      },
      {
        "cd": "AGC005",
        "cdNm": "14~15",
        "cdNmEn": "14~15",
        "cdXpln": "14~15세",
        "cdOrd": "4",
        "mappingCd": "4",
        "prntCd": "AGC000"
      },
      {
        "cd": "AGC006",
        "cdNm": "16~17",
        "cdNmEn": "16~17",
        "cdXpln": "16~17세",
        "cdOrd": "5",
        "mappingCd": "5",
        "prntCd": "AGC000"
      },
      {
        "cd": "AGC007",
        "cdNm": "18~19",
        "cdNmEn": "18~19",
        "cdXpln": "18~19세",
        "cdOrd": "6",
        "mappingCd": "6",
        "prntCd": "AGC000"
      },
      {
        "cd": "AGC008",
        "cdNm": "20~21",
        "cdNmEn": "20~21",
        "cdXpln": "20~21세",
        "cdOrd": "7",
        "mappingCd": "7",
        "prntCd": "AGC000"
      },
      {
        "cd": "AGC009",
        "cdNm": "22~23",
        "cdNmEn": "22~23",
        "cdXpln": "22~23세",
        "cdOrd": "8",
        "mappingCd": "8",
        "prntCd": "AGC000"
      },
      {
        "cd": "AGC010",
        "cdNm": "24~25",
        "cdNmEn": "24~25",
        "cdXpln": "24~25세",
        "cdOrd": "9",
        "mappingCd": "9",
        "prntCd": "AGC000"
      },
      {
        "cd": "AGC011",
        "cdNm": "26~27",
        "cdNmEn": "26~27",
        "cdXpln": "26~27세",
        "cdOrd": "10",
        "mappingCd": "10",
        "prntCd": "AGC000"
      },
      {
        "cd": "AGC012",
        "cdNm": "28~29",
        "cdNmEn": "28~29",
        "cdXpln": "28~29세",
        "cdOrd": "11",
        "mappingCd": "11",
        "prntCd": "AGC000"
      },
      {
        "cd": "AGC013",
        "cdNm": "30~31",
        "cdNmEn": "30~31",
        "cdXpln": "30~31세",
        "cdOrd": "12",
        "mappingCd": "12",
        "prntCd": "AGC000"
      },
      {
        "cd": "AGC014",
        "cdNm": "32~33",
        "cdNmEn": "32~33",
        "cdXpln": "32~33세",
        "cdOrd": "13",
        "mappingCd": "13",
        "prntCd": "AGC000"
      },
      {
        "cd": "AGC015",
        "cdNm": "34~35",
        "cdNmEn": "34~35",
        "cdXpln": "34~35세",
        "cdOrd": "14",
        "mappingCd": "14",
        "prntCd": "AGC000"
      },
      {
        "cd": "AGC016",
        "cdNm": "36~37",
        "cdNmEn": "36~37",
        "cdXpln": "36~37세",
        "cdOrd": "15",
        "mappingCd": "15",
        "prntCd": "AGC000"
      },
      {
        "cd": "AGC017",
        "cdNm": "38~39",
        "cdNmEn": "38~39",
        "cdXpln": "38~39세",
        "cdOrd": "16",
        "mappingCd": "16",
        "prntCd": "AGC000"
      },
      {
        "cd": "AGC018",
        "cdNm": "40~41",
        "cdNmEn": "40~41",
        "cdXpln": "40~41세",
        "cdOrd": "17",
        "mappingCd": "17",
        "prntCd": "AGC000"
      },
      {
        "cd": "AGC019",
        "cdNm": "42~43",
        "cdNmEn": "42~43",
        "cdXpln": "42~43세",
        "cdOrd": "18",
        "mappingCd": "18",
        "prntCd": "AGC000"
      },
      {
        "cd": "AGC020",
        "cdNm": "44~45",
        "cdNmEn": "44~45",
        "cdXpln": "44~45세",
        "cdOrd": "19",
        "mappingCd": "19",
        "prntCd": "AGC000"
      },
      {
        "cd": "AGC021",
        "cdNm": "46~47",
        "cdNmEn": "46~47",
        "cdXpln": "46~47세",
        "cdOrd": "20",
        "mappingCd": "20",
        "prntCd": "AGC000"
      },
      {
        "cd": "AGC022",
        "cdNm": "48~49",
        "cdNmEn": "48~49",
        "cdXpln": "48~49세",
        "cdOrd": "21",
        "mappingCd": "21",
        "prntCd": "AGC000"
      },
      {
        "cd": "AGC023",
        "cdNm": "50~51",
        "cdNmEn": "50~51",
        "cdXpln": "50~51세",
        "cdOrd": "22",
        "mappingCd": "22",
        "prntCd": "AGC000"
      },
      {
        "cd": "AGC024",
        "cdNm": "52~53",
        "cdNmEn": "52~53",
        "cdXpln": "52~53세",
        "cdOrd": "23",
        "mappingCd": "23",
        "prntCd": "AGC000"
      },
      {
        "cd": "AGC025",
        "cdNm": "54~55",
        "cdNmEn": "54~55",
        "cdXpln": "54~55세",
        "cdOrd": "24",
        "mappingCd": "24",
        "prntCd": "AGC000"
      },
      {
        "cd": "AGC026",
        "cdNm": "56~57",
        "cdNmEn": "56~57",
        "cdXpln": "56~57세",
        "cdOrd": "25",
        "mappingCd": "25",
        "prntCd": "AGC000"
      },
      {
        "cd": "AGC027",
        "cdNm": "58~59",
        "cdNmEn": "58~59",
        "cdXpln": "58~59세",
        "cdOrd": "26",
        "mappingCd": "26",
        "prntCd": "AGC000"
      },
      {
        "cd": "AGC028",
        "cdNm": "60~61",
        "cdNmEn": "60~61",
        "cdXpln": "60~61세",
        "cdOrd": "27",
        "mappingCd": "27",
        "prntCd": "AGC000"
      },
      {
        "cd": "AGC029",
        "cdNm": "62~63",
        "cdNmEn": "62~63",
        "cdXpln": "62~63세",
        "cdOrd": "28",
        "mappingCd": "28",
        "prntCd": "AGC000"
      },
      {
        "cd": "AGC030",
        "cdNm": "64~65",
        "cdNmEn": "64~65",
        "cdXpln": "64~65세",
        "cdOrd": "29",
        "mappingCd": "29",
        "prntCd": "AGC000"
      },
      {
        "cd": "AGC031",
        "cdNm": "66~67",
        "cdNmEn": "66~67",
        "cdXpln": "66~67세",
        "cdOrd": "30",
        "mappingCd": "30",
        "prntCd": "AGC000"
      },
      {
        "cd": "AGC032",
        "cdNm": "68~69",
        "cdNmEn": "68~69",
        "cdXpln": "68~69세",
        "cdOrd": "31",
        "mappingCd": "31",
        "prntCd": "AGC000"
      },
      {
        "cd": "AGC033",
        "cdNm": "70~",
        "cdNmEn": "70~",
        "cdXpln": "70세 이상",
        "cdOrd": "32",
        "mappingCd": "32",
        "prntCd": "AGC000"
      }
    ]
  },
  {
    "cd": "BAL000",
    "cdNm": "두뇌활동정도 코드",
    "cdNmEn": "Brain activity level",
    "cdXpln": "",
    "cdOrd": "0",
    "mappingCd": "",
    "prntCd": "",
    "codes": [
      {
        "cd": "BAL001",
        "cdNm": "매우부족",
        "cdNmEn": "Very low",
        "cdXpln": "매우부족",
        "cdOrd": "0",
        "mappingCd": "0",
        "prntCd": "BAL000"
      },
      {
        "cd": "BAL002",
        "cdNm": "부족",
        "cdNmEn": "Low",
        "cdXpln": "부족",
        "cdOrd": "1",
        "mappingCd": "1",
        "prntCd": "BAL000"
      },
      {
        "cd": "BAL003",
        "cdNm": "적정",
        "cdNmEn": "Normal",
        "cdXpln": "적정",
        "cdOrd": "2",
        "mappingCd": "2",
        "prntCd": "BAL000"
      },
      {
        "cd": "BAL004",
        "cdNm": "부하",
        "cdNmEn": "High",
        "cdXpln": "부하",
        "cdOrd": "3",
        "mappingCd": "3",
        "prntCd": "BAL000"
      },
      {
        "cd": "BAL005",
        "cdNm": "과부하",
        "cdNmEn": "Very High",
        "cdXpln": "과부하",
        "cdOrd": "4",
        "mappingCd": "4",
        "prntCd": "BAL000"
      }
    ]
  },
  {
    "cd": "BCC000",
    "cdNm": "게시판 카테고리 코드",
    "cdNmEn": "Board category",
    "cdXpln": "게시판 카테고리 코드",
    "cdOrd": "0",
    "mappingCd": "",
    "prntCd": "",
    "codes": [
      {
        "cd": "BCC001",
        "cdNm": "공지사항",
        "cdNmEn": "notice",
        "cdXpln": "공지사항",
        "cdOrd": "0",
        "mappingCd": "",
        "prntCd": "BCC000"
      },
      {
        "cd": "BCC002",
        "cdNm": "도움말",
        "cdNmEn": "help",
        "cdXpln": "도움말",
        "cdOrd": "1",
        "mappingCd": "",
        "prntCd": "BCC000"
      },
      {
        "cd": "BCC003",
        "cdNm": "가이드",
        "cdNmEn": "guide",
        "cdXpln": "가이드",
        "cdOrd": "2",
        "mappingCd": "",
        "prntCd": "BCC000"
      }
    ]
  },
  {
    "cd": "BIC000",
    "cdNm": "죄우뇌불균형 코드",
    "cdNmEn": "Left and right brian imbalance",
    "cdXpln": "",
    "cdOrd": "0",
    "mappingCd": "",
    "prntCd": "",
    "codes": [
      {
        "cd": "BIC001",
        "cdNm": "매우 좌뇌 편중",
        "cdNmEn": "Very left biased",
        "cdXpln": "매우 좌뇌 편중",
        "cdOrd": "0",
        "mappingCd": "4",
        "prntCd": "BIC000"
      },
      {
        "cd": "BIC002",
        "cdNm": "좌뇌 편중",
        "cdNmEn": "Left biased",
        "cdXpln": "좌뇌 편중",
        "cdOrd": "1",
        "mappingCd": "3",
        "prntCd": "BIC000"
      },
      {
        "cd": "BIC003",
        "cdNm": "균형",
        "cdNmEn": "Balanced",
        "cdXpln": "균형",
        "cdOrd": "2",
        "mappingCd": "2",
        "prntCd": "BIC000"
      },
      {
        "cd": "BIC004",
        "cdNm": "우뇌 편중",
        "cdNmEn": "Right biased",
        "cdXpln": "우뇌 편중",
        "cdOrd": "3",
        "mappingCd": "1",
        "prntCd": "BIC000"
      },
      {
        "cd": "BIC005",
        "cdNm": "매우 우뇌 편중",
        "cdNmEn": "Very right biased",
        "cdXpln": "매우 우뇌 편중",
        "cdOrd": "4",
        "mappingCd": "0",
        "prntCd": "BIC000"
      }
    ]
  },
  {
    "cd": "BSC000",
    "cdNm": "두뇌스트레스 코드",
    "cdNmEn": "Brain stress",
    "cdXpln": "",
    "cdOrd": "0",
    "mappingCd": "",
    "prntCd": "",
    "codes": [
      {
        "cd": "BSC001",
        "cdNm": "매우낮음",
        "cdNmEn": "Very low",
        "cdXpln": "매우낮음",
        "cdOrd": "0",
        "mappingCd": "0",
        "prntCd": "BSC000"
      },
      {
        "cd": "BSC002",
        "cdNm": "낮음",
        "cdNmEn": "Low",
        "cdXpln": "낮음",
        "cdOrd": "1",
        "mappingCd": "1",
        "prntCd": "BSC000"
      },
      {
        "cd": "BSC003",
        "cdNm": "보통",
        "cdNmEn": "Normal",
        "cdXpln": "보통",
        "cdOrd": "2",
        "mappingCd": "2",
        "prntCd": "BSC000"
      },
      {
        "cd": "BSC004",
        "cdNm": "높음",
        "cdNmEn": "High",
        "cdXpln": "높음",
        "cdOrd": "3",
        "mappingCd": "3",
        "prntCd": "BSC000"
      },
      {
        "cd": "BSC005",
        "cdNm": "매우높음",
        "cdNmEn": "Very High",
        "cdXpln": "매우높음",
        "cdOrd": "4",
        "mappingCd": "4",
        "prntCd": "BSC000"
      }
    ]
  },
  {
    "cd": "CEN000",
    "cdNm": "집중도 코드",
    "cdNmEn": "Concentration level",
    "cdXpln": "",
    "cdOrd": "0",
    "mappingCd": "",
    "prntCd": "",
    "codes": [
      {
        "cd": "CEN001",
        "cdNm": "매우낮음",
        "cdNmEn": "Very low",
        "cdXpln": "매우낮음",
        "cdOrd": "0",
        "mappingCd": "0",
        "prntCd": "CEN000"
      },
      {
        "cd": "CEN002",
        "cdNm": "낮음",
        "cdNmEn": "Low",
        "cdXpln": "낮음",
        "cdOrd": "1",
        "mappingCd": "1",
        "prntCd": "CEN000"
      },
      {
        "cd": "CEN003",
        "cdNm": "보통",
        "cdNmEn": "Normal",
        "cdXpln": "보통",
        "cdOrd": "2",
        "mappingCd": "2",
        "prntCd": "CEN000"
      },
      {
        "cd": "CEN004",
        "cdNm": "높음",
        "cdNmEn": "High",
        "cdXpln": "높음",
        "cdOrd": "3",
        "mappingCd": "3",
        "prntCd": "CEN000"
      },
      {
        "cd": "CEN005",
        "cdNm": "매우높음",
        "cdNmEn": "Very High",
        "cdXpln": "매우높음",
        "cdOrd": "4",
        "mappingCd": "4",
        "prntCd": "CEN000"
      }
    ]
  },
  {
    "cd": "CET000",
    "cdNm": "집중크기 유형",
    "cdNmEn": "Concentrated code",
    "cdXpln": "집중크기 유형",
    "cdOrd": "0",
    "mappingCd": "",
    "prntCd": "",
    "codes": [
      {
        "cd": "CET001",
        "cdNm": "산만형",
        "cdNmEn": "Distracting type",
        "cdXpln": "산만형",
        "cdOrd": "0",
        "mappingCd": "0",
        "prntCd": "CET000"
      },
      {
        "cd": "CET002",
        "cdNm": "기회형",
        "cdNmEn": "Opportunity type",
        "cdXpln": "기회형",
        "cdOrd": "1",
        "mappingCd": "1",
        "prntCd": "CET000"
      },
      {
        "cd": "CET003",
        "cdNm": "토끼형",
        "cdNmEn": "Rabbit type",
        "cdXpln": "토끼형",
        "cdOrd": "2",
        "mappingCd": "2",
        "prntCd": "CET000"
      },
      {
        "cd": "CET004",
        "cdNm": "거북이형",
        "cdNmEn": "Turtle type",
        "cdXpln": "거북이형",
        "cdOrd": "3",
        "mappingCd": "3",
        "prntCd": "CET000"
      },
      {
        "cd": "CET005",
        "cdNm": "집중형",
        "cdNmEn": "Concentrated type",
        "cdXpln": "집중형",
        "cdOrd": "4",
        "mappingCd": "4",
        "prntCd": "CET000"
      },
      {
        "cd": "CET006",
        "cdNm": "과도집중형",
        "cdNmEn": "Excessively concentrated type",
        "cdXpln": "과도집중형",
        "cdOrd": "5",
        "mappingCd": "5",
        "prntCd": "CET000"
      },
      {
        "cd": "CET007",
        "cdNm": "보통형",
        "cdNmEn": "Normal type",
        "cdXpln": "보통형",
        "cdOrd": "6",
        "mappingCd": "6",
        "prntCd": "CET000"
      }
    ]
  },
  {
    "cd": "CHC000",
    "cdNm": "캐릭터 코드",
    "cdNmEn": "Character code",
    "cdXpln": "캐릭터 코드",
    "cdOrd": "0",
    "mappingCd": "",
    "prntCd": "",
    "codes": [
      {
        "cd": "CHC001",
        "cdNm": "보통이",
        "cdNmEn": "Comi",
        "cdXpln": "보통이",
        "cdOrd": "0",
        "mappingCd": "0",
        "prntCd": "CHC000"
      },
      {
        "cd": "CHC002",
        "cdNm": "집중이",
        "cdNmEn": "Foci",
        "cdXpln": "집중이",
        "cdOrd": "1",
        "mappingCd": "1",
        "prntCd": "CHC000"
      },
      {
        "cd": "CHC003",
        "cdNm": "산만이",
        "cdNmEn": "Desti",
        "cdXpln": "산만이",
        "cdOrd": "2",
        "mappingCd": "2",
        "prntCd": "CHC000"
      },
      {
        "cd": "CHC004",
        "cdNm": "버럭이",
        "cdNmEn": "Angri",
        "cdXpln": "버럭이",
        "cdOrd": "3",
        "mappingCd": "3",
        "prntCd": "CHC000"
      },
      {
        "cd": "CHC005",
        "cdNm": "우울이",
        "cdNmEn": "Groomy",
        "cdXpln": "우울이",
        "cdOrd": "4",
        "mappingCd": "4",
        "prntCd": "CHC000"
      },
      {
        "cd": "CHC006",
        "cdNm": "졸음이",
        "cdNmEn": "Dizy",
        "cdXpln": "졸음이",
        "cdOrd": "5",
        "mappingCd": "5",
        "prntCd": "CHC000"
      }
    ]
  },
  {
    "cd": "DAT000",
    "cdNm": "버전체크 유형 코드",
    "cdNmEn": "Version check type",
    "cdXpln": "버전체크 시 구분하는 타입",
    "cdOrd": "0",
    "mappingCd": "",
    "prntCd": "",
    "codes": [
      {
        "cd": "DAT001",
        "cdNm": "공통코드",
        "cdNmEn": "Common code",
        "cdXpln": "공통코드",
        "cdOrd": "0",
        "mappingCd": "",
        "prntCd": "DAT000"
      },
      {
        "cd": "DAT002",
        "cdNm": "개인정보 취급방침",
        "cdNmEn": "Privacy policy",
        "cdXpln": "개인정보 취급방침",
        "cdOrd": "1",
        "mappingCd": "",
        "prntCd": "DAT000"
      },
      {
        "cd": "DAT003",
        "cdNm": "서비스 이용약관",
        "cdNmEn": "Terms of Use",
        "cdXpln": "서비스 이용약관",
        "cdOrd": "2",
        "mappingCd": "",
        "prntCd": "DAT000"
      },
      {
        "cd": "DAT004",
        "cdNm": "재생 콘텐츠 리스트",
        "cdNmEn": "Play contents",
        "cdXpln": "재생 콘텐츠 리스트",
        "cdOrd": "3",
        "mappingCd": "",
        "prntCd": "DAT000"
      },
      {
        "cd": "DAT005",
        "cdNm": "훈련 콘텐츠 리스트",
        "cdNmEn": "Training contents",
        "cdXpln": "훈련 콘텐츠 리스트",
        "cdOrd": "4",
        "mappingCd": "",
        "prntCd": "DAT000"
      },
      {
        "cd": "DAT006",
        "cdNm": "리포트 기준정보",
        "cdNmEn": "Report-based data",
        "cdXpln": "리포트 기준정보",
        "cdOrd": "5",
        "mappingCd": "",
        "prntCd": "DAT000"
      },
      {
        "cd": "DAT007",
        "cdNm": "공지사항",
        "cdNmEn": "Notice",
        "cdXpln": "공지사항",
        "cdOrd": "6",
        "mappingCd": "",
        "prntCd": "DAT000"
      },
      {
        "cd": "DAT008",
        "cdNm": "도움말",
        "cdNmEn": "Help",
        "cdXpln": "도움말",
        "cdOrd": "7",
        "mappingCd": "",
        "prntCd": "DAT000"
      },
      {
        "cd": "DAT009",
        "cdNm": "재생 콘텐츠 리스트 청소년",
        "cdNmEn": "Play contents teenager",
        "cdXpln": "재생 콘텐츠 리스트 청소년",
        "cdOrd": "8",
        "mappingCd": "",
        "prntCd": "DAT000"
      },
      {
        "cd": "DAT010",
        "cdNm": "재생 콘텐츠 리스트 성인",
        "cdNmEn": "Play contents adult",
        "cdXpln": "재생 콘텐츠 리스트 성인",
        "cdOrd": "9",
        "mappingCd": "",
        "prntCd": "DAT000"
      }
    ]
  },
  {
    "cd": "FIL000",
    "cdNm": "파일 구분",
    "cdNmEn": "File type",
    "cdXpln": "파일 구분",
    "cdOrd": "0",
    "mappingCd": "",
    "prntCd": "",
    "codes": [
      {
        "cd": "FIL001",
        "cdNm": "이미지",
        "cdNmEn": "Image",
        "cdXpln": "이미지",
        "cdOrd": "0",
        "mappingCd": "",
        "prntCd": "FIL000"
      },
      {
        "cd": "FIL002",
        "cdNm": "음악",
        "cdNmEn": "Music",
        "cdXpln": "음악",
        "cdOrd": "1",
        "mappingCd": "",
        "prntCd": "FIL000"
      },
      {
        "cd": "FIL003",
        "cdNm": "비디오",
        "cdNmEn": "Video",
        "cdXpln": "비디오",
        "cdOrd": "2",
        "mappingCd": "",
        "prntCd": "FIL000"
      },
      {
        "cd": "FIL004",
        "cdNm": "ZIP",
        "cdNmEn": "ZIP",
        "cdXpln": "ZIP압축",
        "cdOrd": "3",
        "mappingCd": "",
        "prntCd": "FIL000"
      }
    ]
  },
  {
    "cd": "FIT000",
    "cdNm": "두뇌훈련구분코드",
    "cdNmEn": "Brain training code",
    "cdXpln": "두뇌훈련구분코드",
    "cdOrd": "0",
    "mappingCd": "",
    "prntCd": "",
    "codes": [
      {
        "cd": "FIT001",
        "cdNm": "버스드라이버",
        "cdNmEn": "Bus driver",
        "cdXpln": "버스드라이버",
        "cdOrd": "0",
        "mappingCd": "",
        "prntCd": "FIT000"
      },
      {
        "cd": "FIT002",
        "cdNm": "성을 지켜라",
        "cdNmEn": "Castle defense",
        "cdXpln": "성을 지켜라",
        "cdOrd": "1",
        "mappingCd": "",
        "prntCd": "FIT000"
      },
      {
        "cd": "FIT003",
        "cdNm": "브레인 트레이닝",
        "cdNmEn": "Brain training",
        "cdXpln": "브레인 트레이닝",
        "cdOrd": "2",
        "mappingCd": "",
        "prntCd": "FIT000"
      }
    ]
  },
  {
    "cd": "GEC000",
    "cdNm": "성별 코드",
    "cdNmEn": "Gender",
    "cdXpln": "성별 코드",
    "cdOrd": "0",
    "mappingCd": "",
    "prntCd": "",
    "codes": [
      {
        "cd": "GEC001",
        "cdNm": "남자",
        "cdNmEn": "Male",
        "cdXpln": "남자",
        "cdOrd": "1",
        "mappingCd": "",
        "prntCd": "GEC000"
      },
      {
        "cd": "GEC002",
        "cdNm": "여자",
        "cdNmEn": "Female",
        "cdXpln": "여자",
        "cdOrd": "2",
        "mappingCd": "",
        "prntCd": "GEC000"
      }
    ]
  },
  {
    "cd": "GRD000",
    "cdNm": "등급 코드",
    "cdNmEn": "Rating Code",
    "cdXpln": "등급 코드",
    "cdOrd": "0",
    "mappingCd": "",
    "prntCd": "",
    "codes": [
      {
        "cd": "GRD001",
        "cdNm": "A",
        "cdNmEn": "A",
        "cdXpln": "A",
        "cdOrd": "0",
        "mappingCd": "",
        "prntCd": "GRD000"
      },
      {
        "cd": "GRD002",
        "cdNm": "B",
        "cdNmEn": "B",
        "cdXpln": "B",
        "cdOrd": "1",
        "mappingCd": "",
        "prntCd": "GRD000"
      },
      {
        "cd": "GRD003",
        "cdNm": "C",
        "cdNmEn": "C",
        "cdXpln": "C",
        "cdOrd": "2",
        "mappingCd": "",
        "prntCd": "GRD000"
      },
      {
        "cd": "GRD004",
        "cdNm": "D",
        "cdNmEn": "D",
        "cdXpln": "D",
        "cdOrd": "3",
        "mappingCd": "",
        "prntCd": "GRD000"
      },
      {
        "cd": "GRD005",
        "cdNm": "E",
        "cdNmEn": "E",
        "cdXpln": "E",
        "cdOrd": "4",
        "mappingCd": "",
        "prntCd": "GRD000"
      },
      {
        "cd": "GRD006",
        "cdNm": "F",
        "cdNmEn": "F",
        "cdXpln": "F",
        "cdOrd": "5",
        "mappingCd": "",
        "prntCd": "GRD000"
      }
    ]
  },
  {
    "cd": "KWC000",
    "cdNm": "두뇌훈련 키워드 코드",
    "cdNmEn": "Brain training keyword",
    "cdXpln": "",
    "cdOrd": "0",
    "mappingCd": "",
    "prntCd": "",
    "codes": [
      {
        "cd": "KWC001",
        "cdNm": "집중력",
        "cdNmEn": "Concentration",
        "cdXpln": "집중력",
        "cdOrd": "1",
        "mappingCd": "",
        "prntCd": "KWC000"
      },
      {
        "cd": "KWC002",
        "cdNm": "통찰력",
        "cdNmEn": "Perspicacity",
        "cdXpln": "통찰력",
        "cdOrd": "2",
        "mappingCd": "",
        "prntCd": "KWC000"
      },
      {
        "cd": "KWC003",
        "cdNm": "순발력",
        "cdNmEn": "Improvisation",
        "cdXpln": "순발력",
        "cdOrd": "3",
        "mappingCd": "",
        "prntCd": "KWC000"
      },
      {
        "cd": "KWC004",
        "cdNm": "주의력",
        "cdNmEn": "Attention",
        "cdXpln": "주의력",
        "cdOrd": "4",
        "mappingCd": "",
        "prntCd": "KWC000"
      },
      {
        "cd": "KWC005",
        "cdNm": "스트레스 완화",
        "cdNmEn": "Stress relief",
        "cdXpln": "스트레스 완화",
        "cdOrd": "5",
        "mappingCd": "",
        "prntCd": "KWC000"
      },
      {
        "cd": "KWC006",
        "cdNm": "안정",
        "cdNmEn": "Stability",
        "cdXpln": "안정",
        "cdOrd": "6",
        "mappingCd": "",
        "prntCd": "KWC000"
      }
    ]
  },
  {
    "cd": "MGC000",
    "cdNm": "음악그룹코드",
    "cdNmEn": "Music group code",
    "cdXpln": "음악 그룹 코드",
    "cdOrd": "0",
    "mappingCd": "",
    "prntCd": "",
    "codes": [
      {
        "cd": "MGC001",
        "cdNm": "concentration",
        "cdNmEn": "concentration",
        "cdXpln": "concentration",
        "cdOrd": "1",
        "mappingCd": "",
        "prntCd": "MGC000"
      },
      {
        "cd": "MGC002",
        "cdNm": "activity_hight",
        "cdNmEn": "activity_hight",
        "cdXpln": "activity_hight",
        "cdOrd": "2",
        "mappingCd": "",
        "prntCd": "MGC000"
      },
      {
        "cd": "MGC003",
        "cdNm": "activity_low",
        "cdNmEn": "activity_low",
        "cdXpln": "activity_low",
        "cdOrd": "3",
        "mappingCd": "",
        "prntCd": "MGC000"
      },
      {
        "cd": "MGC004",
        "cdNm": "stress_high",
        "cdNmEn": "stress_high",
        "cdXpln": "stress_high",
        "cdOrd": "4",
        "mappingCd": "",
        "prntCd": "MGC000"
      },
      {
        "cd": "MGC005",
        "cdNm": "stress_low",
        "cdNmEn": "stress_low",
        "cdXpln": "stress_low",
        "cdOrd": "5",
        "mappingCd": "",
        "prntCd": "MGC000"
      },
      {
        "cd": "MGC006",
        "cdNm": "left_brain",
        "cdNmEn": "left_brain",
        "cdXpln": "left_brain",
        "cdOrd": "6",
        "mappingCd": "",
        "prntCd": "MGC000"
      },
      {
        "cd": "MGC007",
        "cdNm": "right_brain",
        "cdNmEn": "right_brain",
        "cdXpln": "right_brain",
        "cdOrd": "7",
        "mappingCd": "",
        "prntCd": "MGC000"
      },
      {
        "cd": "MGC008",
        "cdNm": "sleep",
        "cdNmEn": "sleep",
        "cdXpln": "sleep",
        "cdOrd": "8",
        "mappingCd": "",
        "prntCd": "MGC000"
      },
      {
        "cd": "MGC009",
        "cdNm": "meditation",
        "cdNmEn": "meditation",
        "cdXpln": "meditation",
        "cdOrd": "9",
        "mappingCd": "",
        "prntCd": "MGC000"
      },
      {
        "cd": "MGC010",
        "cdNm": "alpha",
        "cdNmEn": "alpha",
        "cdXpln": "alpha",
        "cdOrd": "10",
        "mappingCd": "",
        "prntCd": "MGC000"
      },
      {
        "cd": "MGC011",
        "cdNm": "L_beta",
        "cdNmEn": "L_beta",
        "cdXpln": "L_beta",
        "cdOrd": "11",
        "mappingCd": "",
        "prntCd": "MGC000"
      },
      {
        "cd": "MGC012",
        "cdNm": "M_beta",
        "cdNmEn": "M_beta",
        "cdXpln": "M_beta",
        "cdOrd": "12",
        "mappingCd": "",
        "prntCd": "MGC000"
      }
    ]
  },
  {
    "cd": "MST000",
    "cdNm": "측정타입코드",
    "cdNmEn": "measure type",
    "cdXpln": "측정타입코드",
    "cdOrd": "0",
    "mappingCd": "",
    "prntCd": "",
    "codes": [
      {
        "cd": "MST001",
        "cdNm": "측정",
        "cdNmEn": "normal",
        "cdXpln": "측정",
        "cdOrd": "1",
        "mappingCd": "",
        "prntCd": "MST000"
      },
      {
        "cd": "MST002",
        "cdNm": "미측정",
        "cdNmEn": "none",
        "cdXpln": "미측정",
        "cdOrd": "2",
        "mappingCd": "",
        "prntCd": "MST000"
      }
    ]
  },
  {
    "cd": "MTC000",
    "cdNm": "측정유형코드",
    "cdNmEn": "Type of measurement",
    "cdXpln": "측정 유형 코드",
    "cdOrd": "0",
    "mappingCd": "",
    "prntCd": "",
    "codes": [
      {
        "cd": "MTC001",
        "cdNm": "두뇌체크",
        "cdNmEn": "Check brain",
        "cdXpln": "두뇌체크",
        "cdOrd": "1",
        "mappingCd": "",
        "prntCd": "MTC000"
      },
      {
        "cd": "MTC002",
        "cdNm": "퀵트레이닝",
        "cdNmEn": "Quick training",
        "cdXpln": "퀵트레이닝",
        "cdOrd": "2",
        "mappingCd": "",
        "prntCd": "MTC000"
      },
      {
        "cd": "MTC003",
        "cdNm": "인공지능집중도우미",
        "cdNmEn": "AI study mate",
        "cdXpln": "학습모니터링",
        "cdOrd": "3",
        "mappingCd": "",
        "prntCd": "MTC000"
      },
      {
        "cd": "MTC004",
        "cdNm": "뮤직테라피-훈련",
        "cdNmEn": "Music therapy-t",
        "cdXpln": "뮤직테라피-훈련",
        "cdOrd": "4",
        "mappingCd": "",
        "prntCd": "MTC000"
      },
      {
        "cd": "MTC005",
        "cdNm": "힐링 뮤직",
        "cdNmEn": "Healing Music",
        "cdXpln": "힐링 뮤직",
        "cdOrd": "5",
        "mappingCd": "",
        "prntCd": "MTC000"
      },
      {
        "cd": "MTC006",
        "cdNm": "집중력게임",
        "cdNmEn": "Game",
        "cdXpln": "게임",
        "cdOrd": "6",
        "mappingCd": "",
        "prntCd": "MTC000"
      }
    ]
  },
  {
    "cd": "MUC000",
    "cdNm": "음악유형코드",
    "cdNmEn": "",
    "cdXpln": "",
    "cdOrd": "0",
    "mappingCd": "",
    "prntCd": "",
    "codes": [
      {
        "cd": "MUC001",
        "cdNm": "일반음",
        "cdNmEn": "Normal",
        "cdXpln": "일반음",
        "cdOrd": "1",
        "mappingCd": "",
        "prntCd": "MUC000"
      },
      {
        "cd": "MUC002",
        "cdNm": "자연음",
        "cdNmEn": "Natural",
        "cdXpln": "자연음",
        "cdOrd": "2",
        "mappingCd": "",
        "prntCd": "MUC000"
      },
      {
        "cd": "MUC003",
        "cdNm": "비트음",
        "cdNmEn": "Beat",
        "cdXpln": "비트음",
        "cdOrd": "3",
        "mappingCd": "",
        "prntCd": "MUC000"
      }
    ]
  },
  {
    "cd": "OST000",
    "cdNm": "운영체제 유형 코드",
    "cdNmEn": "OS type code",
    "cdXpln": "운영체제 유형",
    "cdOrd": "0",
    "mappingCd": "",
    "prntCd": "",
    "codes": [
      {
        "cd": "OST001",
        "cdNm": "android",
        "cdNmEn": "Android",
        "cdXpln": "Android",
        "cdOrd": "0",
        "mappingCd": "",
        "prntCd": "OST000"
      },
      {
        "cd": "OST002",
        "cdNm": "ios",
        "cdNmEn": "ios",
        "cdXpln": "ios",
        "cdOrd": "1",
        "mappingCd": "",
        "prntCd": "OST000"
      }
    ]
  },
  {
    "cd": "RLX000",
    "cdNm": "이완도 코드",
    "cdNmEn": "",
    "cdXpln": "",
    "cdOrd": "0",
    "mappingCd": "",
    "prntCd": "",
    "codes": [
      {
        "cd": "RLX001",
        "cdNm": "매우낮음",
        "cdNmEn": "Very low",
        "cdXpln": "매우낮음",
        "cdOrd": "0",
        "mappingCd": "0",
        "prntCd": "RLX000"
      },
      {
        "cd": "RLX002",
        "cdNm": "낮음",
        "cdNmEn": "Low",
        "cdXpln": "낮음",
        "cdOrd": "1",
        "mappingCd": "1",
        "prntCd": "RLX000"
      },
      {
        "cd": "RLX003",
        "cdNm": "보통",
        "cdNmEn": "Normal",
        "cdXpln": "보통",
        "cdOrd": "2",
        "mappingCd": "2",
        "prntCd": "RLX000"
      },
      {
        "cd": "RLX004",
        "cdNm": "높음",
        "cdNmEn": "High",
        "cdXpln": "높음",
        "cdOrd": "3",
        "mappingCd": "3",
        "prntCd": "RLX000"
      },
      {
        "cd": "RLX005",
        "cdNm": "매우높음",
        "cdNmEn": "Very High",
        "cdXpln": "매우높음",
        "cdOrd": "4",
        "mappingCd": "4",
        "prntCd": "RLX000"
      }
    ]
  },
  {
    "cd": "STC000",
    "cdNm": "학습 유형 코드",
    "cdNmEn": "Study type",
    "cdXpln": "학습 유형 코드",
    "cdOrd": "0",
    "mappingCd": "",
    "prntCd": "",
    "codes": [
      {
        "cd": "STC001",
        "cdNm": "인공지능모드",
        "cdNmEn": "AI mode",
        "cdXpln": "인공지능모드",
        "cdOrd": "1",
        "mappingCd": "",
        "prntCd": "STC000"
      },
      {
        "cd": "STC002",
        "cdNm": "수동모드",
        "cdNmEn": "Manual mode",
        "cdXpln": "수동모드",
        "cdOrd": "2",
        "mappingCd": "",
        "prntCd": "STC000"
      }
    ]
  },
  {
    "cd": "SVC000",
    "cdNm": "서비스타입코드",
    "cdNmEn": "",
    "cdXpln": "서비스타입코드",
    "cdOrd": "0",
    "mappingCd": "",
    "prntCd": "",
    "codes": [
      {
        "cd": "SVC001",
        "cdNm": "청소년",
        "cdNmEn": "teenager",
        "cdXpln": "청소년",
        "cdOrd": "1",
        "mappingCd": "",
        "prntCd": "SVC000"
      },
      {
        "cd": "SVC002",
        "cdNm": "성인",
        "cdNmEn": "adult",
        "cdXpln": "성인",
        "cdOrd": "2",
        "mappingCd": "",
        "prntCd": "SVC000"
      }
    ]
  },
  {
    "cd": "TMT000",
    "cdNm": "약관타입코드",
    "cdNmEn": "Terms Type",
    "cdXpln": "약관타입코드",
    "cdOrd": "0",
    "mappingCd": "",
    "prntCd": "",
    "codes": [
      {
        "cd": "TMT001",
        "cdNm": "개인정보 취급방침",
        "cdNmEn": "Privacy policy",
        "cdXpln": "개인정보 취급방침",
        "cdOrd": "1",
        "mappingCd": "",
        "prntCd": "TMT000"
      },
      {
        "cd": "TMT002",
        "cdNm": "서비스 이용약관",
        "cdNmEn": "Terms of Use",
        "cdXpln": "서비스 이용약관",
        "cdOrd": "2",
        "mappingCd": "",
        "prntCd": "TMT000"
      }
    ]
  },
  {
    "cd": "UTS000",
    "cdNm": "재생컨텐츠구분",
    "cdNmEn": "Play type",
    "cdXpln": "재생컨텐츠구분",
    "cdOrd": "0",
    "mappingCd": "",
    "prntCd": "",
    "codes": [
      {
        "cd": "UTS001",
        "cdNm": "퀵트레이닝",
        "cdNmEn": "Quick training",
        "cdXpln": "퀵트레이닝",
        "cdOrd": "0",
        "mappingCd": "",
        "prntCd": "UTS000"
      },
      {
        "cd": "UTS002",
        "cdNm": "인공지능집중도우미",
        "cdNmEn": "AI Focus Assistant",
        "cdXpln": "학습모드AI",
        "cdOrd": "1",
        "mappingCd": "",
        "prntCd": "UTS000"
      },
      {
        "cd": "UTS003",
        "cdNm": "힐링뮤직",
        "cdNmEn": "Healing Music",
        "cdXpln": "두뇌훈련콘텐츠_Audio",
        "cdOrd": "2",
        "mappingCd": "",
        "prntCd": "UTS000"
      },
      {
        "cd": "UTS004",
        "cdNm": "두뇌훈련콘텐츠_Video",
        "cdNmEn": "Brain training video",
        "cdXpln": "두뇌훈련콘텐츠_Video",
        "cdOrd": "3",
        "mappingCd": "",
        "prntCd": "UTS000"
      },
      {
        "cd": "UTS005",
        "cdNm": "학습모니터링",
        "cdNmEn": "Learning monitoring",
        "cdXpln": "학습모니터링",
        "cdOrd": "4",
        "mappingCd": "",
        "prntCd": "UTS000"
      },
      {
        "cd": "UTS006",
        "cdNm": "명상",
        "cdNmEn": "Meditation Therapy",
        "cdXpln": "명상테라피",
        "cdOrd": "5",
        "mappingCd": "",
        "prntCd": "UTS000"
      },
      {
        "cd": "UTS007",
        "cdNm": "더쉼 힐링뮤직",
        "cdNmEn": "Healing Music",
        "cdXpln": "더쉼 힐링뮤직",
        "cdOrd": "8",
        "mappingCd": "",
        "prntCd": "UTS000"
      },
      {
        "cd": "UTS008",
        "cdNm": "명상MBSR",
        "cdNmEn": "Meditation MBSR",
        "cdXpln": "명상MBSR",
        "cdOrd": "6",
        "mappingCd": "",
        "prntCd": "UTS000"
      },
      {
        "cd": "UTS009",
        "cdNm": "명상 자율훈련",
        "cdNmEn": "Meditation discipline",
        "cdXpln": "명상 자율훈련",
        "cdOrd": "7",
        "mappingCd": "",
        "prntCd": "UTS000"
      }
    ]
  },
  {
    "cd": "ALP000",
    "cdNm": "알파리듬",
    "cdNmEn": "Alpha rhythm",
    "cdXpln": "알파리듬",
    "cdOrd": "0",
    "mappingCd": "",
    "prntCd": ""
  },
  {
    "cd": "GAM000",
    "cdNm": "감마리듬",
    "cdNmEn": "Gamma rhythm",
    "cdXpln": "감마리듬",
    "cdOrd": "0",
    "mappingCd": "",
    "prntCd": ""
  },
  {
    "cd": "HBE000",
    "cdNm": "하이베타리듬",
    "cdNmEn": "HighBeta rhythm",
    "cdXpln": "하이베타리듬",
    "cdOrd": "0",
    "mappingCd": "",
    "prntCd": ""
  },
  {
    "cd": "LBE000",
    "cdNm": "로우베타리듬",
    "cdNmEn": "LowBeta rhythm",
    "cdXpln": "로우베타리듬",
    "cdOrd": "0",
    "mappingCd": "",
    "prntCd": ""
  },
  {
    "cd": "MBE000",
    "cdNm": "미들베타리듬",
    "cdNmEn": "MiddleBeta rhythm",
    "cdXpln": "미들베타리듬",
    "cdOrd": "0",
    "mappingCd": "",
    "prntCd": ""
  },
  {
    "cd": "THE000",
    "cdNm": "세타리듬",
    "cdNmEn": "Theta rhythm",
    "cdXpln": "세타리듬",
    "cdOrd": "0",
    "mappingCd": "",
    "prntCd": ""
  }
]