[
  {
    "fitBrainSeq": 4,
    "appNm": "득도",
    "smry": "뇌파로 득도하기",
    "ord": 4,
    "useYn": "Y",
    "regDt": "2018-07-10T20:15:01Z",
    "updDt": "2019-04-01T05:29:26Z",
    "iconFileSeq": 210,
    "imgFileSeq": 211,
    "gameFileSeq": 212,
    "imgFile": {
      "fileSeq": 211,
      "fileNm": "IMG_zip_game_01",
      "fileSize": 0,
      "fileTypeCd": "FIL001",
      "filePath": "https://bapi.omnifit.co.kr/resources/images/fbrain/zip_game_01.png",
      "fileExtension": "png",
      "playTime": 0
    },
    "iconFile": {
      "fileSeq": 210,
      "fileNm": "ICON_zip_game_01",
      "fileSize": 0,
      "fileTypeCd": "FIL001",
      "filePath": "https://bapi.omnifit.co.kr/resources/images/fbrain/zip_game_01_icon.png",
      "fileExtension": "png",
      "playTime": 0
    },
    "gameFile": {
      "fileSeq": 212,
      "fileNm": "zip_game_01",
      "fileSize": 4499755,
      "fileTypeCd": "FIL004",
      "filePath": "https://bapi.omnifit.co.kr/resources/game/fbrain/zip_game_01.zip",
      "fileExtension": "zip",
      "playTime": 0
    }
  },
  {
    "fitBrainSeq": 8,
    "appNm": "달리기",
    "smry": "뇌파로 달리기",
    "ord": 8,
    "useYn": "Y",
    "regDt": "2018-08-06T06:09:51Z",
    "updDt": "2019-04-01T05:30:33Z",
    "iconFileSeq": 330,
    "imgFileSeq": 331,
    "gameFileSeq": 332,
    "imgFile": {
      "fileSeq": 331,
      "fileNm": "IMG_zip_game_02",
      "fileSize": 0,
      "fileTypeCd": "FIL001",
      "filePath": "https://bapi.omnifit.co.kr/resources/images/fbrain/zip_game_02.png",
      "fileExtension": "png",
      "playTime": 0
    },
    "iconFile": {
      "fileSeq": 330,
      "fileNm": "ICON_zip_game_02",
      "fileSize": 0,
      "fileTypeCd": "FIL001",
      "filePath": "https://bapi.omnifit.co.kr/resources/images/fbrain/zip_game_02_icon.png",
      "fileExtension": "png",
      "playTime": 0
    },
    "gameFile": {
      "fileSeq": 332,
      "fileNm": "index.html",
      "fileSize": 4173050,
      "fileTypeCd": "FIL004",
      "filePath": "https://bapi.omnifit.co.kr/resources/game/fbrain/zip_game_02.zip",
      "fileExtension": "zip",
      "playTime": 0
    }
  }
]